<svg width="31" height="31" viewBox="0 0 31 31" fill="none" xmlns="http://www.w3.org/2000/svg">
<path d="M12.7374 3.11033C13.42 0.296558 17.4227 0.296558 18.1053 3.11033C18.2078 3.53303 18.4085 3.92558 18.6913 4.25602C18.9741 4.58647 19.331 4.84546 19.7328 5.01194C20.1346 5.17841 20.5701 5.24765 21.0037 5.21403C21.4373 5.18041 21.8569 5.04488 22.2282 4.81846C24.7007 3.31223 27.5321 6.14202 26.0259 8.61608C25.7998 8.98728 25.6645 9.40659 25.6309 9.83993C25.5974 10.2733 25.6666 10.7084 25.8328 11.11C25.9991 11.5116 26.2578 11.8682 26.5879 12.151C26.9179 12.4338 27.3101 12.6347 27.7324 12.7374C30.5462 13.42 30.5462 17.4227 27.7324 18.1053C27.3097 18.2078 26.9171 18.4085 26.5867 18.6913C26.2563 18.9741 25.9973 19.331 25.8308 19.7328C25.6643 20.1346 25.5951 20.5701 25.6287 21.0037C25.6623 21.4373 25.7979 21.8569 26.0243 22.2282C27.5305 24.7007 24.7007 27.5321 22.2266 26.0259C21.8554 25.7998 21.4361 25.6645 21.0028 25.6309C20.5695 25.5974 20.1343 25.6666 19.7327 25.8328C19.3312 25.9991 18.9745 26.2578 18.6917 26.5879C18.4089 26.9179 18.208 27.3101 18.1053 27.7324C17.4227 30.5462 13.42 30.5462 12.7374 27.7324C12.635 27.3097 12.4342 26.9171 12.1514 26.5867C11.8686 26.2563 11.5118 25.9973 11.1099 25.8308C10.7081 25.6643 10.2727 25.5951 9.83904 25.6287C9.4054 25.6623 8.98583 25.7979 8.61448 26.0243C6.14202 27.5305 3.31062 24.7007 4.81685 22.2266C5.04295 21.8554 5.17827 21.4361 5.21181 21.0028C5.24536 20.5695 5.17618 20.1343 5.0099 19.7327C4.84362 19.3312 4.58493 18.9745 4.25486 18.6917C3.92479 18.4089 3.53265 18.208 3.11033 18.1053C0.296558 17.4227 0.296558 13.42 3.11033 12.7374C3.53303 12.635 3.92558 12.4342 4.25602 12.1514C4.58647 11.8686 4.84546 11.5118 5.01194 11.1099C5.17841 10.7081 5.24765 10.2727 5.21403 9.83904C5.18041 9.4054 5.04488 8.98583 4.81846 8.61448C3.31223 6.14202 6.14202 3.31062 8.61608 4.81685C10.2185 5.7911 12.2951 4.92902 12.7374 3.11033Z" stroke="#54514C" stroke-opacity="0.75" stroke-width="1.5" stroke-linecap="round" stroke-linejoin="round"/>
<path d="M15.4224 20.2285C18.0773 20.2285 20.2295 18.0763 20.2295 15.4214C20.2295 12.7665 18.0773 10.6143 15.4224 10.6143C12.7675 10.6143 10.6152 12.7665 10.6152 15.4214C10.6152 18.0763 12.7675 20.2285 15.4224 20.2285Z" stroke="#54514C" stroke-opacity="0.75" stroke-width="1.5" stroke-linecap="round" stroke-linejoin="round"/>
</svg>
