<svg width="41" height="45" viewBox="0 0 41 45" fill="none" xmlns="http://www.w3.org/2000/svg">
<g clip-path="url(#clip0)">
<mask id="path-1-inside-1" fill="white">
<path d="M10.045 22.2846C10.0439 20.0022 10.6581 17.7707 11.8099 15.8729C12.9617 13.975 14.5992 12.496 16.5151 11.6233C18.4309 10.7506 20.539 10.5234 22.5722 10.9704C24.6055 11.4174 26.4725 12.5186 27.9368 14.1345C29.4012 15.7504 30.397 17.8083 30.7982 20.0476C31.1993 22.2869 30.9878 24.6069 30.1903 26.7138C29.3929 28.8207 28.0454 30.6196 26.3186 31.8829C24.5917 33.1462 22.5631 33.817 20.4897 33.8103C19.1159 33.8105 17.7555 33.5124 16.4865 32.9329C15.2175 32.3535 14.0649 31.504 13.0946 30.4334C12.1244 29.3627 11.3555 28.0918 10.8322 26.6935C10.3089 25.2952 10.0414 23.797 10.045 22.2846ZM20.5115 14.7972C19.1661 14.7988 17.8514 15.2398 16.7338 16.0643C15.6162 16.8889 14.746 18.06 14.2334 19.4293C13.7208 20.7986 13.5888 22.3046 13.8541 23.7565C14.1195 25.2085 14.7702 26.5411 15.724 27.5857C16.6777 28.6302 17.8916 29.3398 19.2119 29.6245C20.5322 29.9092 21.8995 29.7563 23.1408 29.1851C24.3821 28.6138 25.4415 27.65 26.1849 26.4156C26.9283 25.1812 27.3222 23.7317 27.3169 22.2507C27.3044 20.2716 26.5823 18.3779 25.3078 16.982C24.0332 15.586 22.3094 14.8008 20.5115 14.7972Z"/>
</mask>
<path d="M10.045 22.2846C10.0439 20.0022 10.6581 17.7707 11.8099 15.8729C12.9617 13.975 14.5992 12.496 16.5151 11.6233C18.4309 10.7506 20.539 10.5234 22.5722 10.9704C24.6055 11.4174 26.4725 12.5186 27.9368 14.1345C29.4012 15.7504 30.397 17.8083 30.7982 20.0476C31.1993 22.2869 30.9878 24.6069 30.1903 26.7138C29.3929 28.8207 28.0454 30.6196 26.3186 31.8829C24.5917 33.1462 22.5631 33.817 20.4897 33.8103C19.1159 33.8105 17.7555 33.5124 16.4865 32.9329C15.2175 32.3535 14.0649 31.504 13.0946 30.4334C12.1244 29.3627 11.3555 28.0918 10.8322 26.6935C10.3089 25.2952 10.0414 23.797 10.045 22.2846ZM20.5115 14.7972C19.1661 14.7988 17.8514 15.2398 16.7338 16.0643C15.6162 16.8889 14.746 18.06 14.2334 19.4293C13.7208 20.7986 13.5888 22.3046 13.8541 23.7565C14.1195 25.2085 14.7702 26.5411 15.724 27.5857C16.6777 28.6302 17.8916 29.3398 19.2119 29.6245C20.5322 29.9092 21.8995 29.7563 23.1408 29.1851C24.3821 28.6138 25.4415 27.65 26.1849 26.4156C26.9283 25.1812 27.3222 23.7317 27.3169 22.2507C27.3044 20.2716 26.5823 18.3779 25.3078 16.982C24.0332 15.586 22.3094 14.8008 20.5115 14.7972Z" fill="#FAA43F" fill-opacity="0.9"/>
<path d="M20.4897 33.8103L20.5059 28.8103L20.4973 28.8103H20.4887L20.4897 33.8103ZM20.5115 14.7972L20.5216 9.79717L20.5136 9.79716L20.5055 9.79717L20.5115 14.7972ZM27.3169 22.2507L32.3168 22.2325L32.3168 22.2193L27.3169 22.2507ZM15.045 22.2823C15.0443 20.8884 15.4214 19.5593 16.0844 18.4669L7.53549 13.2788C5.89485 15.9822 5.04347 19.116 5.04496 22.287L15.045 22.2823ZM16.0844 18.4669C16.7453 17.3779 17.6368 16.6067 18.5878 16.1735L14.4424 7.07317C11.5616 8.3854 9.17816 10.572 7.53549 13.2788L16.0844 18.4669ZM18.5878 16.1735C19.5305 15.744 20.5353 15.642 21.4986 15.8538L23.6459 6.08705C20.5426 5.40477 17.3313 5.75719 14.4424 7.07317L18.5878 16.1735ZM21.4986 15.8538C22.4675 16.0668 23.4297 16.6068 24.2319 17.492L31.6418 10.777C29.5153 8.43041 26.7435 6.76808 23.6459 6.08705L21.4986 15.8538ZM24.2319 17.492C25.0385 18.3822 25.6332 19.5711 25.8765 20.9293L35.7198 19.1659C35.1608 16.0455 33.7639 13.1186 31.6418 10.777L24.2319 17.492ZM25.8765 20.9293C26.1199 22.288 25.9882 23.6912 25.5141 24.9438L34.8666 28.4837C35.9873 25.5227 36.2787 22.2858 35.7198 19.1659L25.8765 20.9293ZM25.5141 24.9438C25.0406 26.1948 24.2688 27.1873 23.3664 27.8475L29.2707 35.9184C31.822 34.052 33.7452 31.4465 34.8666 28.4837L25.5141 24.9438ZM23.3664 27.8475C22.4713 28.5023 21.4763 28.8134 20.5059 28.8103L20.4735 38.8102C23.6499 38.8205 26.7121 37.7901 29.2707 35.9184L23.3664 27.8475ZM20.4887 28.8103C19.8432 28.8104 19.1906 28.6711 18.5634 28.3847L14.4096 37.4812C16.3204 38.3537 18.3885 38.8107 20.4907 38.8103L20.4887 28.8103ZM18.5634 28.3847C17.9346 28.0975 17.3304 27.6615 16.7996 27.0758L9.38963 33.7909C10.7994 35.3466 12.5005 36.6094 14.4096 37.4812L18.5634 28.3847ZM16.7996 27.0758C16.268 26.4892 15.8243 25.7674 15.515 24.941L6.14943 28.446C6.88678 30.4163 7.98074 32.2362 9.38963 33.7909L16.7996 27.0758ZM15.515 24.941C15.2056 24.1143 15.0428 23.2143 15.0449 22.2965L5.04497 22.2728C5.03999 24.3796 5.41219 26.4761 6.14943 28.446L15.515 24.941ZM20.5055 9.79717C18.0574 9.80006 15.7112 10.6051 13.7652 12.041L19.7024 20.0877C19.9915 19.8744 20.2747 19.7974 20.5174 19.7972L20.5055 9.79717ZM13.7652 12.041C11.8264 13.4715 10.384 15.4505 9.55077 17.6763L18.916 21.1823C19.108 20.6695 19.406 20.3064 19.7024 20.0877L13.7652 12.041ZM9.55077 17.6763C8.71816 19.9005 8.50941 22.3233 8.93559 24.6554L18.7727 22.8577C18.6682 22.2859 18.7234 21.6968 18.916 21.1823L9.55077 17.6763ZM8.93559 24.6554C9.36189 26.9881 10.417 29.1887 12.0315 30.957L19.4164 24.2143C19.1235 23.8935 18.8771 23.4289 18.7727 22.8577L8.93559 24.6554ZM12.0315 30.957C13.6506 32.7303 15.772 33.9977 18.1579 34.5122L20.2659 24.7369C20.0111 24.6819 19.7048 24.5302 19.4164 24.2143L12.0315 30.957ZM18.1579 34.5122C20.5493 35.0279 23.0191 34.7451 25.2311 33.7272L21.0506 24.6429C20.78 24.7675 20.515 24.7906 20.2659 24.7369L18.1579 34.5122ZM25.2311 33.7272C27.4348 32.713 29.237 31.0394 30.4682 28.9951L21.9016 23.8361C21.646 24.2606 21.3294 24.5146 21.0506 24.6429L25.2311 33.7272ZM30.4682 28.9951C31.6973 26.9541 32.3254 24.602 32.3168 22.2325L22.3169 22.2689C22.319 22.8615 22.1593 23.4083 21.9016 23.8361L30.4682 28.9951ZM32.3168 22.2193C32.297 19.0672 31.1507 15.9659 29.0002 13.6106L21.6154 20.3533C22.014 20.7899 22.3119 21.4759 22.317 22.2821L32.3168 22.2193ZM29.0002 13.6106C26.8355 11.2397 23.8001 9.80381 20.5216 9.79717L20.5013 19.7972C20.8186 19.7978 21.231 19.9324 21.6154 20.3533L29.0002 13.6106Z" fill="white" mask="url(#path-1-inside-1)"/>
<mask id="path-3-inside-2" fill="white">
<path d="M33.8563 10.3039C33.8549 10.8373 33.7099 11.3582 33.4398 11.8009C33.1696 12.2436 32.7863 12.5883 32.3383 12.7914C31.8903 12.9945 31.3977 13.0469 30.9227 12.942C30.4476 12.8372 30.0115 12.5797 29.6693 12.2022C29.3271 11.8246 29.0941 11.3439 28.9999 10.8208C28.9057 10.2976 28.9544 9.75544 29.1399 9.26273C29.3254 8.77003 29.6394 8.34887 30.0421 8.05244C30.4449 7.75601 30.9184 7.59759 31.4029 7.59719C31.726 7.5956 32.0461 7.66457 32.3448 7.80011C32.6434 7.93565 32.9147 8.13506 33.1429 8.3868C33.3711 8.63854 33.5516 8.93761 33.6741 9.26669C33.7966 9.59577 33.8585 9.94833 33.8563 10.3039Z"/>
</mask>
<path d="M33.8563 10.3039C33.8549 10.8373 33.7099 11.3582 33.4398 11.8009C33.1696 12.2436 32.7863 12.5883 32.3383 12.7914C31.8903 12.9945 31.3977 13.0469 30.9227 12.942C30.4476 12.8372 30.0115 12.5797 29.6693 12.2022C29.3271 11.8246 29.0941 11.3439 28.9999 10.8208C28.9057 10.2976 28.9544 9.75544 29.1399 9.26273C29.3254 8.77003 29.6394 8.34887 30.0421 8.05244C30.4449 7.75601 30.9184 7.59759 31.4029 7.59719C31.726 7.5956 32.0461 7.66457 32.3448 7.80011C32.6434 7.93565 32.9147 8.13506 33.1429 8.3868C33.3711 8.63854 33.5516 8.93761 33.6741 9.26669C33.7966 9.59577 33.8585 9.94833 33.8563 10.3039Z" fill="white"/>
<path d="M33.8563 10.3039L28.8564 10.2736L28.8564 10.282L28.8564 10.2905L33.8563 10.3039ZM31.4029 7.59719L31.407 12.5972L31.4173 12.5972L31.4276 12.5971L31.4029 7.59719ZM28.8564 10.2905C28.8573 9.93665 28.9516 9.55702 29.1718 9.19627L37.7078 14.4056C38.4683 13.1594 38.8525 11.7379 38.8563 10.3174L28.8564 10.2905ZM29.1718 9.19627C29.394 8.83215 29.7573 8.47165 30.2738 8.23751L34.4028 17.3453C35.8153 16.7049 36.9452 15.6551 37.7078 14.4056L29.1718 9.19627ZM30.2738 8.23751C30.7984 7.99967 31.4076 7.92869 32.0005 8.0596L29.8448 17.8245C31.3879 18.1651 32.9822 17.9893 34.4028 17.3453L30.2738 8.23751ZM32.0005 8.0596C32.5879 8.18926 33.0549 8.49228 33.3739 8.84424L25.9646 15.5601C26.9681 16.6671 28.3074 17.4851 29.8448 17.8245L32.0005 8.0596ZM33.3739 8.84424C33.6885 9.19127 33.8565 9.57798 33.9208 9.93457L24.0791 11.7069C24.3317 13.1098 24.9656 14.458 25.9646 15.5601L33.3739 8.84424ZM33.9208 9.93457C33.9849 10.2906 33.955 10.6639 33.8193 11.0244L24.4605 7.50107C23.9538 8.84702 23.8265 10.3046 24.0791 11.7069L33.9208 9.93457ZM33.8193 11.0244C33.6829 11.3866 33.4241 11.7715 33.0059 12.0794L27.0784 4.02552C25.8546 4.9262 24.9679 6.15343 24.4605 7.50107L33.8193 11.0244ZM33.0059 12.0794C32.5805 12.3924 32.0237 12.5967 31.407 12.5972L31.3988 2.5972C29.8132 2.5985 28.3093 3.11957 27.0784 4.02552L33.0059 12.0794ZM31.4276 12.5971C31.0183 12.5992 30.6261 12.5109 30.2786 12.3532L34.411 3.247C33.4661 2.8182 32.4336 2.59205 31.3783 2.59726L31.4276 12.5971ZM30.2786 12.3532C29.9327 12.1963 29.652 11.9805 29.4383 11.7447L36.8475 5.02888C36.1774 4.28958 35.3541 3.67501 34.411 3.247L30.2786 12.3532ZM29.4383 11.7447C29.2254 11.5099 29.0796 11.2567 28.9881 11.0105L38.3601 7.52285C38.0236 6.61856 37.5167 5.76718 36.8475 5.02888L29.4383 11.7447ZM28.9881 11.0105C28.8966 10.7647 28.855 10.5156 28.8564 10.2736L38.8562 10.3343C38.862 9.3811 38.6965 8.42683 38.3601 7.52285L28.9881 11.0105Z" fill="#1A3B59" mask="url(#path-3-inside-2)"/>
<path d="M29.2963 2.09619H11.562C6.22822 2.09619 1.9043 6.85602 1.9043 12.7276V32.1399C1.9043 38.0114 6.22822 42.7712 11.562 42.7712H29.2963C34.6302 42.7712 38.9541 38.0114 38.9541 32.1399V12.7276C38.9541 6.85602 34.6302 2.09619 29.2963 2.09619Z" stroke="white" stroke-width="5" stroke-miterlimit="10"/>
</g>
<defs>
<clipPath id="clip0">
<rect width="40.8578" height="44.8669" fill="white"/>
</clipPath>
</defs>
</svg>
