<svg width="13" height="17" viewBox="0 0 13 17" fill="none" xmlns="http://www.w3.org/2000/svg">
<path d="M6.53711 6.86328V6.87681" stroke="#BDBDBD" stroke-width="1.5" stroke-linecap="round" stroke-linejoin="round"/>
<path d="M6.53516 16L1.75342 9.47261C1.2931 8.67762 1.05782 7.78162 1.07082 6.87314C1.08383 5.96466 1.34467 5.07515 1.82758 4.29248C2.31048 3.50982 2.99874 2.86109 3.82434 2.4104C4.64995 1.95971 5.58432 1.72266 6.53516 1.72266C7.48599 1.72266 8.42037 1.95971 9.24597 2.4104C10.0716 2.86109 10.7598 3.50982 11.2427 4.29248C11.7256 5.07515 11.9865 5.96466 11.9995 6.87314C12.0125 7.78162 11.7772 8.67762 11.3169 9.47261L6.53516 16Z" stroke="#FF3E79" stroke-width="1.5" stroke-linecap="round" stroke-linejoin="round"/>
</svg>
